{
  "kind": "collectionType",
  "collectionName": "shortlists",
  "info": {
    "name": "Shortlist",
    "description": ""
  },
  "options": {
    "increments": true,
    "timestamps": true,
    "draftAndPublish": true
  },
  "attributes": {
    "listing": {
      "model": "listings"
    },
    "users_permissions_user": {
      "plugin": "users-permissions",
      "model": "user"
    }
  }
}
