{
  "kind": "collectionType",
  "collectionName": "sub_type_of_properties",
  "info": {
    "name": "subTypeOfProperties"
  },
  "options": {
    "increments": true,
    "timestamps": true,
    "draftAndPublish": true
  },
  "attributes": {
    "sub_type": {
      "type": "string"
    }
  }
}
